[
    {
        "id": 1,
        "title": "This is a test 👍❤🎶",
        "content": "Testing ❤🎹😊",
        "user_id": 1,
        "item_id": null,
        "created_at": "2017-08-08 16:33:25",
        "updated_at": "2017-08-08 16:33:25"
    },
    {
        "id": 2,
        "title": "Testing✔😎",
        "content": "Hello 💚💙✔",
        "user_id": 1,
        "item_id": null,
        "created_at": "2017-08-13 16:37:50",
        "updated_at": "2017-08-13 16:37:50"
    }
]